Project 1 Checkpoint 3
…
pop_data <- populations |>
  html_element("table.wikitable") |>
  html_table(fill = TRUE) |>
  select(
    Country = 1, 
    Population = 2
    ) |>
  mutate(
    Country    = trimws(Country),
    Population = as.numeric(gsub("[^0-9]", "", Population))  # strip anything that isn't a digit
  ) |>
  filter(!is.na(Population))
pop_data

# A tibble: 240 × 2
   Country       Population
   <chr>              <dbl>
 1 World         8232000000
 2 India         1417492000
 3 China         1404890000
 4 United States  341784857
 5 Indonesia      288315089
 6 Pakistan       241499431
 7 Nigeria        223800000
 8 Brazil         213421037
 9 Bangladesh     169828911
10 Russia         146028325
# ℹ 230 more rows
…
democracy_data_2020 <- democracy_data |>
  filter(year == 2020) |>
  mutate(
    iso3c = countrycode(country_name, 
                        origin = "country.name", 
                        destination = "iso3c"
                        ))

# Now join based on iso3c country code
country_data <- pop_data |>
  inner_join(democracy_data_2020, 
             by = "iso3c")
country_data

# A tibble: 192 × 47
   Country       Population iso3c country_name  country_code  year
   <chr>              <dbl> <chr> <chr>         <chr>        <dbl>
 1 India         1417492000 IND   India         IND           2020
 2 China         1404890000 CHN   China         CHN           2020
 3 United States  341784857 USA   United States USA           2020
 4 Indonesia      288315089 IDN   Indonesia     IDN           2020
 5 Pakistan       241499431 PAK   Pakistan      PAK           2020
 6 Nigeria        223800000 NGA   Nigeria       NGA           2020
 7 Brazil         213421037 BRA   Brazil        BRA           2020
 8 Bangladesh     169828911 BGD   Bangladesh    BGD           2020
 9 Russia         146028325 RUS   Russia        RUS           2020
10 Mexico         131001723 MEX   Mexico        MEX           2020
# ℹ 182 more rows
# ℹ 41 more variables: regime_category_index <dbl>, regime_category <chr>,
#   is_monarchy <lgl>, is_commonwealth <lgl>, monarch_name <chr>,
#   monarch_accession_year <dbl>, monarch_birthyear <dbl>,
#   is_female_monarch <lgl>, is_democracy <lgl>, is_presidential <lgl>,
#   president_name <chr>, president_accesion_year <dbl>,
#   president_birthyear <dbl>, is_interim_phase <lgl>, …
…
Create Countries Meta Dataset for 2020

# Read in csv GDP data
gdp_data <- read.csv("country_gdps.csv")
gdp_data <- gdp_data |>
  select(-X)

# Combine GDP with aggregate 2020 data
country_meta_data <- country_data |>
  inner_join(gdp_data, 
             by = "iso3c")

country_meta_data

# A tibble: 194 × 48
   Country       Population iso3c country_name  country_code  year
   <chr>              <dbl> <chr> <chr>         <chr>        <dbl>
 1 India         1417492000 IND   India         IND           2020
 2 China         1404890000 CHN   China         CHN           2020
 3 United States  341784857 USA   United States USA           2020
 4 Indonesia      288315089 IDN   Indonesia     IDN           2020
 5 Pakistan       241499431 PAK   Pakistan      PAK           2020
 6 Nigeria        223800000 NGA   Nigeria       NGA           2020
 7 Brazil         213421037 BRA   Brazil        BRA           2020
 8 Bangladesh     169828911 BGD   Bangladesh    BGD           2020
 9 Russia         146028325 RUS   Russia        RUS           2020
10 Mexico         131001723 MEX   Mexico        MEX           2020
# ℹ 184 more rows
# ℹ 42 more variables: regime_category_index <dbl>, regime_category <chr>,
#   is_monarchy <lgl>, is_commonwealth <lgl>, monarch_name <chr>,
#   monarch_accession_year <dbl>, monarch_birthyear <dbl>,
#   is_female_monarch <lgl>, is_democracy <lgl>, is_presidential <lgl>,
#   president_name <chr>, president_accesion_year <dbl>,
#   president_birthyear <dbl>, is_interim_phase <lgl>, …
…
